<?xml version="1.0" encoding="UTF-8"?>
<svg width="29px" height="45px" viewBox="0 0 29 45" version="1.1" xmlns="http://www.w3.org/2000/svg" xmlns:xlink="http://www.w3.org/1999/xlink">
    <!-- Generator: Sketch 52.5 (67469) - http://www.bohemiancoding.com/sketch -->
    <title>emotion2</title>
    <desc>Created with Sketch.</desc>
    <defs>
        <filter x="-9.7%" y="-5.8%" width="120.1%" height="111.6%" filterUnits="objectBoundingBox" id="filter-1">
            <feOffset dx="0" dy="0" in="SourceAlpha" result="shadowOffsetOuter1"></feOffset>
            <feGaussianBlur stdDeviation="0.5" in="shadowOffsetOuter1" result="shadowBlurOuter1"></feGaussianBlur>
            <feColorMatrix values="0 0 0 0 0   0 0 0 0 0   0 0 0 0 0  0 0 0 0.5 0" type="matrix" in="shadowBlurOuter1" result="shadowMatrixOuter1"></feColorMatrix>
            <feMerge>
                <feMergeNode in="shadowMatrixOuter1"></feMergeNode>
                <feMergeNode in="SourceGraphic"></feMergeNode>
            </feMerge>
        </filter>
    </defs>
    <g id="Page-1" stroke="none" stroke-width="1" fill="none" fill-rule="evenodd">
        <g id="emotions" transform="translate(-317.000000, -139.000000)">
            <g id="emotion2" filter="url(#filter-1)" transform="translate(318.247678, 140.000000)">
                <g id="Group-2">
                    <rect id="Rectangle" stroke="#FFFFFF" stroke-width="2.58653165" fill-rule="nonzero" x="1.29326582" y="1.29326582" width="23.2265554" height="40.4134684" rx="11.6132777"></rect>
                    <path d="M13.2730256,24.717037 C10.2135906,24.717037 7.74392612,22.8959605 7.74392612,20.64 L18.8021251,20.64 C18.8021251,22.8959605 16.3324607,24.717037 13.2730256,24.717037 Z" id="Path" fill="#FFFFFF"></path>
                    <path d="M10.0025712,12.9 C9.37983051,12.9 9.03458047,13.3897548 9.03458047,13.3897548 C9.03458047,13.3897548 8.68933043,12.9 8.0665897,12.9 C7.41308838,12.9 6.88348988,13.4769264 6.88348988,14.1888283 C6.88348988,15.1662289 7.94010558,16.1134005 8.23458988,16.4126431 C8.57381687,16.7571117 9.03458047,17.2 9.03458047,17.2 C9.03458047,17.2 9.49534407,16.7571117 9.83457106,16.4126431 C10.1290554,16.1134005 11.1856711,15.1662289 11.1856711,14.1888283 C11.1856711,13.4769264 10.6560726,12.9 10.0025712,12.9 Z" id="Path" fill="#FFFFFF"></path>
                    <path d="M17.7464974,12.9 C17.1237566,12.9 16.7785066,13.3897548 16.7785066,13.3897548 C16.7785066,13.3897548 16.4332565,12.9 15.8105158,12.9 C15.1570145,12.9 14.627416,13.4769264 14.627416,14.1888283 C14.627416,15.1662289 15.6840317,16.1134005 15.978516,16.4126431 C16.317743,16.7571117 16.7785066,17.2 16.7785066,17.2 C16.7785066,17.2 17.2392702,16.7571117 17.5784972,16.4126431 C17.8729815,16.1134005 18.9295972,15.1662289 18.9295972,14.1888283 C18.9295972,13.4769264 18.3999987,12.9 17.7464974,12.9 Z" id="Path" fill="#FFFFFF"></path>
                </g>
            </g>
        </g>
    </g>
</svg>