<?xml version="1.0" encoding="UTF-8"?>
<svg width="28px" height="45px" viewBox="0 0 28 45" version="1.1" xmlns="http://www.w3.org/2000/svg" xmlns:xlink="http://www.w3.org/1999/xlink">
    <!-- Generator: Sketch 52.5 (67469) - http://www.bohemiancoding.com/sketch -->
    <title>emotion5</title>
    <desc>Created with Sketch.</desc>
    <defs>
        <filter x="-9.7%" y="-5.8%" width="120.1%" height="111.6%" filterUnits="objectBoundingBox" id="filter-1">
            <feOffset dx="0" dy="0" in="SourceAlpha" result="shadowOffsetOuter1"></feOffset>
            <feGaussianBlur stdDeviation="0.5" in="shadowOffsetOuter1" result="shadowBlurOuter1"></feGaussianBlur>
            <feColorMatrix values="0 0 0 0 0   0 0 0 0 0   0 0 0 0 0  0 0 0 0.5 0" type="matrix" in="shadowBlurOuter1" result="shadowMatrixOuter1"></feColorMatrix>
            <feMerge>
                <feMergeNode in="shadowMatrixOuter1"></feMergeNode>
                <feMergeNode in="SourceGraphic"></feMergeNode>
            </feMerge>
        </filter>
    </defs>
    <g id="Page-1" stroke="none" stroke-width="1" fill="none" fill-rule="evenodd">
        <g id="emotions" transform="translate(-178.000000, -139.000000)" fill-rule="nonzero">
            <g id="emotion5" filter="url(#filter-1)" transform="translate(179.000000, 140.000000)">
                <g id="Group-2">
                    <rect id="Rectangle" stroke="#FFFFFF" stroke-width="2.58653165" x="1.29326582" y="1.29326582" width="23.2265554" height="40.4134684" rx="11.6132777"></rect>
                    <g id="Group-3" transform="translate(7.203652, 12.541667)" fill="#FFFFFF">
                        <rect id="Rectangle" x="0" y="0" width="3.6018261" height="3.58333333" rx="1.79166667"></rect>
                        <rect id="Rectangle-Copy" x="8.4042609" y="0" width="3.6018261" height="3.58333333" rx="1.79166667"></rect>
                    </g>
                </g>
            </g>
        </g>
    </g>
</svg>